{
  "_embedded": {
    "events": [
      {
        "name": "The Classic East - 2 Day Ticket: 7.29 & 7.30",
        "type": "event",
        "id": "G5vVZfEr58d8B",
        "test": false,
        "url": "http://www.ticketmaster.com/event/1D0052778B40343A",
        "locale": "en-us",
        "images": [
          null,
          {
            "ratio": "4_3",
            "url": "https://s1.ticketm.net/dam/a/bfe/c1ba62a3-998c-40ae-96de-177295320bfe_371961_CUSTOM.jpg",
            "width": 305,
            "height": 225,
            "fallback": false
          },
          {
            "ratio": "16_9",
            "url": "https://s1.ticketm.net/dam/a/bfe/c1ba62a3-998c-40ae-96de-177295320bfe_371961_TABLET_LANDSCAPE_LARGE_16_9.jpg",
            "width": 2048,
            "height": 1152,
            "fallback": false
          },
          {
            "ratio": "16_9",
            "url": "https://s1.ticketm.net/dbimages/277042a.jpg",
            "width": 205,
            "height": 115,
            "fallback": false
          }
        ]
      }
    ],
    "page": {
      "size": 20,
      "totalElements": 146026,
      "totalPages": 7302,
      "number": 0
    }
  }
}
